rtl/y86.vcd
$date
	Thu Jul 18 21:09:11 2019
$end
$version
	Icarus Verilog
$end
$timescale
	10ps
$end
$scope module test_tb $end
$scope module y86 $end
$var wire 1 ! clock $end
$var wire 1 " clockn $end
$var wire 1 # reset $end
$var wire 1 $ Stat $end
$var wire 64 % SYNTHESIZED_WIRE_75 [63:0] $end
$var wire 64 & SYNTHESIZED_WIRE_74 [63:0] $end
$var wire 64 ' SYNTHESIZED_WIRE_73 [63:0] $end
$var wire 4 ( SYNTHESIZED_WIRE_72 [3:0] $end
$var wire 4 ) SYNTHESIZED_WIRE_71 [3:0] $end
$var wire 1 * SYNTHESIZED_WIRE_70 $end
$var wire 64 + SYNTHESIZED_WIRE_69 [63:0] $end
$var wire 64 , SYNTHESIZED_WIRE_68 [63:0] $end
$var wire 64 - SYNTHESIZED_WIRE_67 [63:0] $end
$var wire 4 . SYNTHESIZED_WIRE_66 [3:0] $end
$var wire 4 / SYNTHESIZED_WIRE_65 [3:0] $end
$var wire 1 0 SYNTHESIZED_WIRE_64 $end
$var wire 1 1 SYNTHESIZED_WIRE_63 $end
$var wire 1 2 SYNTHESIZED_WIRE_61 $end
$var wire 1 3 SYNTHESIZED_WIRE_60 $end
$var wire 1 4 SYNTHESIZED_WIRE_59 $end
$var wire 8 5 SYNTHESIZED_WIRE_54 [7:0] $end
$var wire 4 6 SYNTHESIZED_WIRE_50 [3:0] $end
$var wire 4 7 SYNTHESIZED_WIRE_49 [3:0] $end
$var wire 4 8 SYNTHESIZED_WIRE_48 [3:0] $end
$var wire 4 9 SYNTHESIZED_WIRE_47 [3:0] $end
$var wire 64 : SYNTHESIZED_WIRE_46 [63:0] $end
$var wire 64 ; SYNTHESIZED_WIRE_45 [63:0] $end
$var wire 13 < SYNTHESIZED_WIRE_44 [12:0] $end
$var wire 1 = SYNTHESIZED_WIRE_43 $end
$var wire 1 > SYNTHESIZED_WIRE_42 $end
$var wire 64 ? SYNTHESIZED_WIRE_4 [63:0] $end
$var wire 64 @ SYNTHESIZED_WIRE_38 [63:0] $end
$var wire 64 A SYNTHESIZED_WIRE_3 [63:0] $end
$var wire 72 B SYNTHESIZED_WIRE_2 [71:0] $end
$var wire 3 C SYNTHESIZED_WIRE_15 [2:0] $end
$var wire 3 D SYNTHESIZED_WIRE_14 [2:0] $end
$var wire 1 E SYNTHESIZED_WIRE_13 $end
$var wire 80 F SYNTHESIZED_WIRE_12 [79:0] $end
$var wire 64 G SYNTHESIZED_WIRE_10 [63:0] $end
$scope module b2v_align $end
$var wire 64 H t_valC [63:0] $end
$var wire 1 0 needvalC $end
$var wire 1 1 needregids $end
$var wire 64 I m_valC [63:0] $end
$var wire 4 J m_rB [3:0] $end
$var wire 4 K m_rA [3:0] $end
$var wire 72 L ibytes [71:0] $end
$upscope $end
$scope module b2v_alu $end
$var wire 64 M valE [63:0] $end
$var wire 3 N new_cc [2:0] $end
$var wire 4 O ifun [3:0] $end
$var wire 64 P aluB [63:0] $end
$var wire 64 Q aluA [63:0] $end
$upscope $end
$scope module b2v_aluA $end
$var wire 64 R valC [63:0] $end
$var wire 64 S valA [63:0] $end
$var wire 4 T icode [3:0] $end
$var wire 64 U alu_A [63:0] $end
$upscope $end
$scope module b2v_aluB $end
$var wire 64 V valB [63:0] $end
$var wire 4 W icode [3:0] $end
$var wire 64 X alu_B [63:0] $end
$upscope $end
$scope module b2v_bussplit1 $end
$var wire 13 Y buso [12:0] $end
$var wire 64 Z busi [63:0] $end
$upscope $end
$scope module b2v_bussplit2 $end
$var wire 72 [ buso2 [71:0] $end
$var wire 8 \ buso1 [7:0] $end
$var wire 80 ] busi [79:0] $end
$upscope $end
$scope module b2v_cc $end
$var wire 1 ! clock $end
$var wire 3 ^ new_cc [2:0] $end
$var wire 1 # reset $end
$var wire 1 E set_cc $end
$var wire 3 _ cur_cc [2:0] $end
$scope module cc_0 $end
$var wire 1 ! clock $end
$var wire 3 ` datain [2:0] $end
$var wire 3 a reservedata [2:0] $end
$var wire 1 # reset $end
$var wire 1 E enable $end
$var reg 3 b dataout [2:0] $end
$upscope $end
$upscope $end
$scope module b2v_cond $end
$var wire 1 * Cond $end
$var wire 3 c cur_cc [2:0] $end
$var wire 1 d zf $end
$var wire 1 e sf $end
$var wire 1 f of $end
$var wire 4 g ifun [3:0] $end
$upscope $end
$scope module b2v_dstE $end
$var wire 1 * Cond $end
$var wire 4 h rB [3:0] $end
$var wire 4 i icode [3:0] $end
$var wire 4 j d_dstE [3:0] $end
$upscope $end
$scope module b2v_dstM $end
$var wire 4 k rA [3:0] $end
$var wire 4 l icode [3:0] $end
$var wire 4 m d_dstM [3:0] $end
$upscope $end
$scope module b2v_instrvalid $end
$var wire 1 4 instr_valid $end
$var wire 4 n icode [3:0] $end
$upscope $end
$scope module b2v_memaddr $end
$var wire 64 o valE [63:0] $end
$var wire 64 p valA [63:0] $end
$var wire 64 q mem_addr [63:0] $end
$var wire 4 r icode [3:0] $end
$upscope $end
$scope module b2v_memdata $end
$var wire 64 s valP [63:0] $end
$var wire 64 t valA [63:0] $end
$var wire 64 u mem_data [63:0] $end
$var wire 4 v icode [3:0] $end
$upscope $end
$scope module b2v_memread $end
$var wire 1 > mem_read $end
$var wire 4 w icode [3:0] $end
$upscope $end
$scope module b2v_memwrite $end
$var wire 1 = mem_write $end
$var wire 4 x icode [3:0] $end
$upscope $end
$scope module b2v_need_regids $end
$var wire 1 1 needregids $end
$var wire 4 y icode [3:0] $end
$upscope $end
$scope module b2v_need_valC $end
$var wire 1 0 needvalC $end
$var wire 4 z icode [3:0] $end
$upscope $end
$scope module b2v_newpc $end
$var wire 1 * Cond $end
$var wire 64 { valC [63:0] $end
$var wire 64 | valP [63:0] $end
$var wire 64 } valM [63:0] $end
$var wire 64 ~ newpc [63:0] $end
$var wire 4 !" icode [3:0] $end
$upscope $end
$scope module b2v_pc $end
$var wire 1 ! clock $end
$var wire 64 "" new_pc [63:0] $end
$var wire 1 # reset $end
$var reg 64 #" cur_pc [63:0] $end
$upscope $end
$scope module b2v_pc_increase $end
$var wire 1 1 needregids $end
$var wire 1 0 needvalC $end
$var wire 64 $" pc [63:0] $end
$var wire 4 %" temp [3:0] $end
$var wire 64 &" m_valP [63:0] $end
$upscope $end
$scope module b2v_ram $end
$var wire 1 ! clock $end
$var wire 1 2 dmem_error $end
$var wire 1 '" dmem_status $end
$var wire 13 (" iaddr [12:0] $end
$var wire 1 3 imem_error $end
$var wire 64 )" mem_addr [63:0] $end
$var wire 64 *" mem_data [63:0] $end
$var wire 1 > mem_read $end
$var wire 1 = mem_write $end
$var wire 1 # reset $end
$var wire 64 +" valM [63:0] $end
$var wire 80 ," insn [79:0] $end
$var wire 1 -" imem_status $end
$upscope $end
$scope module b2v_regfile $end
$var wire 1 ! clock $end
$var wire 4 ." dstE [3:0] $end
$var wire 4 /" dstM [3:0] $end
$var wire 1 0" r10_wid $end
$var wire 1 1" r11_wid $end
$var wire 1 2" r12_wid $end
$var wire 1 3" r13_wid $end
$var wire 1 4" r14_wid $end
$var wire 1 5" r8_wid $end
$var wire 1 6" r9_wid $end
$var wire 1 7" rax_wid $end
$var wire 1 8" rbp_wid $end
$var wire 1 9" rbx_wid $end
$var wire 1 :" rcx_wid $end
$var wire 1 ;" rdi_wid $end
$var wire 1 <" rdx_wid $end
$var wire 1 # reset $end
$var wire 1 =" rsi_wid $end
$var wire 1 >" rsp_wid $end
$var wire 64 ?" valE [63:0] $end
$var wire 64 @" valM [63:0] $end
$var wire 64 A" valB [63:0] $end
$var wire 64 B" valA [63:0] $end
$var wire 4 C" srcB [3:0] $end
$var wire 4 D" srcA [3:0] $end
$var wire 1 E" rsp_widm $end
$var wire 1 F" rsp_wide $end
$var wire 64 G" rsp_wdata [63:0] $end
$var wire 64 H" rsp_data [63:0] $end
$var wire 1 I" rsi_widm $end
$var wire 1 J" rsi_wide $end
$var wire 64 K" rsi_wdata [63:0] $end
$var wire 64 L" rsi_data [63:0] $end
$var wire 1 M" rdx_widm $end
$var wire 1 N" rdx_wide $end
$var wire 64 O" rdx_wdata [63:0] $end
$var wire 64 P" rdx_data [63:0] $end
$var wire 1 Q" rdi_widm $end
$var wire 1 R" rdi_wide $end
$var wire 64 S" rdi_wdata [63:0] $end
$var wire 64 T" rdi_data [63:0] $end
$var wire 1 U" rcx_widm $end
$var wire 1 V" rcx_wide $end
$var wire 64 W" rcx_wdata [63:0] $end
$var wire 64 X" rcx_data [63:0] $end
$var wire 1 Y" rbx_widm $end
$var wire 1 Z" rbx_wide $end
$var wire 64 [" rbx_wdata [63:0] $end
$var wire 64 \" rbx_data [63:0] $end
$var wire 1 ]" rbp_widm $end
$var wire 1 ^" rbp_wide $end
$var wire 64 _" rbp_wdata [63:0] $end
$var wire 64 `" rbp_data [63:0] $end
$var wire 1 a" rax_widm $end
$var wire 1 b" rax_wide $end
$var wire 64 c" rax_wdata [63:0] $end
$var wire 64 d" rax_data [63:0] $end
$var wire 1 e" r9_widm $end
$var wire 1 f" r9_wide $end
$var wire 64 g" r9_wdata [63:0] $end
$var wire 64 h" r9_data [63:0] $end
$var wire 1 i" r8_widm $end
$var wire 1 j" r8_wide $end
$var wire 64 k" r8_wdata [63:0] $end
$var wire 64 l" r8_data [63:0] $end
$var wire 1 m" r14_widm $end
$var wire 1 n" r14_wide $end
$var wire 64 o" r14_wdata [63:0] $end
$var wire 64 p" r14_data [63:0] $end
$var wire 1 q" r13_widm $end
$var wire 1 r" r13_wide $end
$var wire 64 s" r13_wdata [63:0] $end
$var wire 64 t" r13_data [63:0] $end
$var wire 1 u" r12_widm $end
$var wire 1 v" r12_wide $end
$var wire 64 w" r12_wdata [63:0] $end
$var wire 64 x" r12_data [63:0] $end
$var wire 1 y" r11_widm $end
$var wire 1 z" r11_wide $end
$var wire 64 {" r11_wdata [63:0] $end
$var wire 64 |" r11_data [63:0] $end
$var wire 1 }" r10_widm $end
$var wire 1 ~" r10_wide $end
$var wire 64 !# r10_wdata [63:0] $end
$var wire 64 "# r10_data [63:0] $end
$scope module r10_reg $end
$var wire 1 ! clock $end
$var wire 64 ## datain [63:0] $end
$var wire 1 0" enable $end
$var wire 64 $# reservedata [63:0] $end
$var wire 1 # reset $end
$var reg 64 %# dataout [63:0] $end
$upscope $end
$scope module r11_reg $end
$var wire 1 ! clock $end
$var wire 64 &# datain [63:0] $end
$var wire 1 1" enable $end
$var wire 64 '# reservedata [63:0] $end
$var wire 1 # reset $end
$var reg 64 (# dataout [63:0] $end
$upscope $end
$scope module r12_reg $end
$var wire 1 ! clock $end
$var wire 64 )# datain [63:0] $end
$var wire 1 2" enable $end
$var wire 64 *# reservedata [63:0] $end
$var wire 1 # reset $end
$var reg 64 +# dataout [63:0] $end
$upscope $end
$scope module r13_reg $end
$var wire 1 ! clock $end
$var wire 64 ,# datain [63:0] $end
$var wire 1 3" enable $end
$var wire 64 -# reservedata [63:0] $end
$var wire 1 # reset $end
$var reg 64 .# dataout [63:0] $end
$upscope $end
$scope module r14_reg $end
$var wire 1 ! clock $end
$var wire 64 /# datain [63:0] $end
$var wire 1 4" enable $end
$var wire 64 0# reservedata [63:0] $end
$var wire 1 # reset $end
$var reg 64 1# dataout [63:0] $end
$upscope $end
$scope module r8_reg $end
$var wire 1 ! clock $end
$var wire 64 2# datain [63:0] $end
$var wire 1 5" enable $end
$var wire 64 3# reservedata [63:0] $end
$var wire 1 # reset $end
$var reg 64 4# dataout [63:0] $end
$upscope $end
$scope module r9_reg $end
$var wire 1 ! clock $end
$var wire 64 5# datain [63:0] $end
$var wire 1 6" enable $end
$var wire 64 6# reservedata [63:0] $end
$var wire 1 # reset $end
$var reg 64 7# dataout [63:0] $end
$upscope $end
$scope module rax_reg $end
$var wire 1 ! clock $end
$var wire 64 8# datain [63:0] $end
$var wire 1 7" enable $end
$var wire 64 9# reservedata [63:0] $end
$var wire 1 # reset $end
$var reg 64 :# dataout [63:0] $end
$upscope $end
$scope module rbp_reg $end
$var wire 1 ! clock $end
$var wire 64 ;# datain [63:0] $end
$var wire 1 8" enable $end
$var wire 64 <# reservedata [63:0] $end
$var wire 1 # reset $end
$var reg 64 =# dataout [63:0] $end
$upscope $end
$scope module rbx_reg $end
$var wire 1 ! clock $end
$var wire 64 ># datain [63:0] $end
$var wire 1 9" enable $end
$var wire 64 ?# reservedata [63:0] $end
$var wire 1 # reset $end
$var reg 64 @# dataout [63:0] $end
$upscope $end
$scope module rcx_reg $end
$var wire 1 ! clock $end
$var wire 64 A# datain [63:0] $end
$var wire 1 :" enable $end
$var wire 64 B# reservedata [63:0] $end
$var wire 1 # reset $end
$var reg 64 C# dataout [63:0] $end
$upscope $end
$scope module rdi_reg $end
$var wire 1 ! clock $end
$var wire 64 D# datain [63:0] $end
$var wire 1 ;" enable $end
$var wire 64 E# reservedata [63:0] $end
$var wire 1 # reset $end
$var reg 64 F# dataout [63:0] $end
$upscope $end
$scope module rdx_reg $end
$var wire 1 ! clock $end
$var wire 64 G# datain [63:0] $end
$var wire 1 <" enable $end
$var wire 64 H# reservedata [63:0] $end
$var wire 1 # reset $end
$var reg 64 I# dataout [63:0] $end
$upscope $end
$scope module rsi_reg $end
$var wire 1 ! clock $end
$var wire 64 J# datain [63:0] $end
$var wire 1 =" enable $end
$var wire 64 K# reservedata [63:0] $end
$var wire 1 # reset $end
$var reg 64 L# dataout [63:0] $end
$upscope $end
$scope module rsp_reg $end
$var wire 1 ! clock $end
$var wire 64 M# datain [63:0] $end
$var wire 1 >" enable $end
$var wire 64 N# reservedata [63:0] $end
$var wire 1 # reset $end
$var reg 64 O# dataout [63:0] $end
$upscope $end
$upscope $end
$scope module b2v_setcc $end
$var wire 1 E set_cc $end
$var wire 4 P# icode [3:0] $end
$upscope $end
$scope module b2v_split $end
$var wire 8 Q# ibytes [7:0] $end
$var wire 4 R# m_ifun [3:0] $end
$var wire 4 S# m_icode [3:0] $end
$upscope $end
$scope module b2v_srcA $end
$var wire 4 T# icode [3:0] $end
$var wire 4 U# rA [3:0] $end
$var wire 4 V# d_srcA [3:0] $end
$upscope $end
$scope module b2v_srcB $end
$var wire 4 W# icode [3:0] $end
$var wire 4 X# rB [3:0] $end
$var wire 4 Y# d_srcB [3:0] $end
$upscope $end
$scope module b2v_stat0 $end
$var wire 1 2 dmem_error $end
$var wire 4 Z# icode [3:0] $end
$var wire 1 3 imem_error $end
$var wire 1 4 instr_valid $end
$var wire 1 $ Stat $end
$upscope $end
$upscope $end
$upscope $end
$enddefinitions $end
#0
$dumpvars
b11 Z#
b1111 Y#
b100 X#
b11 W#
b1111 V#
b1111 U#
b11 T#
b11 S#
b0 R#
b110000 Q#
b11 P#
b0 O#
b0 N#
b1000000000 M#
b0 L#
b0 K#
b0 J#
b0 I#
b0 H#
b0 G#
b0 F#
b0 E#
b0 D#
b0 C#
b0 B#
b0 A#
b0 @#
b0 ?#
b0 >#
b0 =#
b0 <#
b0 ;#
b0 :#
b0 9#
b0 8#
b0 7#
b0 6#
b0 5#
b0 4#
b0 3#
b0 2#
b0 1#
b0 0#
b0 /#
b0 .#
b0 -#
b0 ,#
b0 +#
b0 *#
b0 )#
b0 (#
b0 '#
b0 &#
b0 %#
b0 $#
b0 ##
b0 "#
b0 !#
0~"
0}"
b0 |"
b0 {"
0z"
0y"
b0 x"
b0 w"
0v"
0u"
b0 t"
b0 s"
0r"
0q"
b0 p"
b0 o"
0n"
0m"
b0 l"
b0 k"
0j"
0i"
b0 h"
b0 g"
0f"
0e"
b0 d"
b0 c"
0b"
0a"
b0 `"
b0 _"
0^"
0]"
b0 \"
b0 ["
0Z"
0Y"
b0 X"
b0 W"
0V"
0U"
b0 T"
b0 S"
0R"
0Q"
b0 P"
b0 O"
0N"
0M"
b0 L"
b0 K"
0J"
0I"
b0 H"
b1000000000 G"
1F"
0E"
b1111 D"
b1111 C"
b0 B"
b0 A"
b0 @"
b1000000000 ?"
1>"
0="
0<"
0;"
0:"
09"
08"
07"
06"
05"
04"
03"
02"
01"
00"
b1111 /"
b100 ."
1-"
b110000111101000000000000000010000000000000000000000000000000000000000000000000 ,"
b0 +"
b0 *"
b0 )"
b0 ("
1'"
b1010 &"
b1000 %"
b0 $"
b0 #"
b1010 ""
b11 !"
b1010 ~
b0 }
b1010 |
b1000000000 {
b11 z
b11 y
b11 x
b11 w
b11 v
b0 u
b0 t
b1010 s
b11 r
b0 q
b0 p
b1000000000 o
b11 n
b1111 m
b11 l
b1111 k
b100 j
b11 i
b100 h
b0 g
0f
0e
0d
b0 c
b0 b
b0 a
b0 `
b0 _
b0 ^
b110000111101000000000000000010000000000000000000000000000000000000000000000000 ]
b110000 \
b111101000000000000000010000000000000000000000000000000000000000000000000 [
b0 Z
b0 Y
b0 X
b11 W
b0 V
b1000000000 U
b11 T
b0 S
b1000000000 R
b1000000000 Q
b0 P
b0 O
b0 N
b1000000000 M
b111101000000000000000010000000000000000000000000000000000000000000000000 L
b1111 K
b100 J
b1000000000 I
b10000000000000000000000000000000000000000000000000 H
b0 G
b110000111101000000000000000010000000000000000000000000000000000000000000000000 F
0E
b0 D
b0 C
b111101000000000000000010000000000000000000000000000000000000000000000000 B
b1000000000 A
b1010 @
b0 ?
0>
0=
b0 <
b0 ;
b0 :
b100 9
b1111 8
b1111 7
b1111 6
b110000 5
14
03
02
11
10
b0 /
b11 .
b0 -
b1000000000 ,
b0 +
1*
b100 )
b1111 (
b1000000000 '
b1010 &
b0 %
1$
1#
x"
1!
$end
#1000
0!
#2000
1!
#3000
0!
#4000
1!
#5000
0!
#6000
b1000000000 ?
b1000000000 P
b1000000000 X
1$
b1000000000 G
b1000000000 V
b1000000000 A"
02
1'"
01
b0 D
b0 N
b0 ^
b0 `
b100 6
b100 C"
b100 Y#
b111111000 '
b111111000 M
b111111000 o
b111111000 ?"
b111111000 G"
b111111000 M#
1>"
b0 k"
b0 2#
05"
b1111111111111111111111111111111111111111111111111111111111111000 A
b1111111111111111111111111111111111111111111111111111111111111000 Q
b1111111111111111111111111111111111111111111111111111111111111000 U
1F"
0j"
b111111000 ;
b111111000 q
b111111000 )"
b111000 ,
b111000 I
b111000 R
b111000 {
1=
b10011 :
b10011 u
b10011 *"
b11100000000000000000000000000000000000000000000000000000000000 H
b100 9
b100 j
b100 ."
b1111 )
b1111 J
b1111 h
b1111 X#
b1111 (
b1111 K
b1111 k
b1111 U#
b1000 .
b1000 T
b1000 W
b1000 i
b1000 l
b1000 n
b1000 r
b1000 v
b1000 w
b1000 x
b1000 y
b1000 z
b1000 !"
b1000 P#
b1000 S#
b1000 T#
b1000 W#
b1000 Z#
b111000 @
b111000 ~
b111000 ""
b10000000 5
b10000000 \
b10000000 Q#
b1110000000000000000000000000000000000000000000000000000000000000000000 B
b1110000000000000000000000000000000000000000000000000000000000000000000 L
b1110000000000000000000000000000000000000000000000000000000000000000000 [
b10000000001110000000000000000000000000000000000000000000000000000000000000000000 F
b10000000001110000000000000000000000000000000000000000000000000000000000000000000 ]
b10000000001110000000000000000000000000000000000000000000000000000000000000000000 ,"
b1010 <
b1010 Y
b1010 ("
b1000000000 H"
b1000000000 O#
b10011 &
b10011 s
b10011 |
b10011 &"
b1010 +
b1010 Z
b1010 #"
b1010 $"
1!
0#
#7000
0!
#8000
b11000 S"
b11000 D#
1;"
1R"
b1000010 @
b1000010 ~
b1000010 ""
b111 )
b111 J
b111 h
b111 X#
11
0>"
b0 D
b0 N
b0 ^
b0 `
b1111 6
b1111 C"
b1111 Y#
0F"
b0 G"
b0 M#
14
b11000 A
b11000 Q
b11000 U
b11000 '
b11000 M
b11000 o
b11000 ?"
b0 ;
b0 q
b0 )"
b111 9
b111 j
b111 ."
b11000 ,
b11000 I
b11000 R
b11000 {
b0 ?
b0 P
b0 X
b1000 %"
0=
b1100000000000000000000000000000000000000000000000000000000000 H
b0 G
b0 V
b0 A"
10
b11 .
b11 T
b11 W
b11 i
b11 l
b11 n
b11 r
b11 v
b11 w
b11 x
b11 y
b11 z
b11 !"
b11 P#
b11 S#
b11 T#
b11 W#
b11 Z#
b0 :
b0 u
b0 *"
b110000 5
b110000 \
b110000 Q#
b111101110001100000000000000000000000000000000000000000000000000000000000 B
b111101110001100000000000000000000000000000000000000000000000000000000000 L
b111101110001100000000000000000000000000000000000000000000000000000000000 [
b110000111101110001100000000000000000000000000000000000000000000000000000000000 F
b110000111101110001100000000000000000000000000000000000000000000000000000000000 ]
b110000111101110001100000000000000000000000000000000000000000000000000000000000 ,"
b111000 <
b111000 Y
b111000 ("
b1000010 &
b1000010 s
b1000010 |
b1000010 &"
b111000 +
b111000 Z
b111000 #"
b111000 $"
b111111000 H"
b111111000 O#
1!
#9000
0!
#10000
b100 '
b100 M
b100 o
b100 ?"
b100 A
b100 Q
b100 U
b100 K"
b100 J#
1="
b0 S"
b0 D#
0;"
1J"
0R"
b100 ,
b100 I
b100 R
b100 {
b10000000000000000000000000000000000000000000000000000000000 H
b110 9
b110 j
b110 ."
b110 )
b110 J
b110 h
b110 X#
b1001100 @
b1001100 ~
b1001100 ""
b111101100000010000000000000000000000000000000000000000000000000000000000 B
b111101100000010000000000000000000000000000000000000000000000000000000000 L
b111101100000010000000000000000000000000000000000000000000000000000000000 [
b110000111101100000010000000000000000000000000000000000000000000000000000000000 F
b110000111101100000010000000000000000000000000000000000000000000000000000000000 ]
b110000111101100000010000000000000000000000000000000000000000000000000000000000 ,"
b1000010 <
b1000010 Y
b1000010 ("
b11000 T"
b11000 F#
b1001100 &
b1001100 s
b1001100 |
b1001100 &"
b1000010 +
b1000010 Z
b1000010 #"
b1000010 $"
1!
#11000
0!
#12000
b111111000 ?
b111111000 P
b111111000 X
1$
b111111000 G
b111111000 V
b111111000 A"
b111110000 G"
b111110000 M#
1>"
02
b1111 )
b1111 J
b1111 h
b1111 X#
1F"
1'"
01
0="
b0 D
b0 N
b0 ^
b0 `
b0 K"
b0 J#
b100 6
b100 C"
b100 Y#
0J"
b111110000 '
b111110000 M
b111110000 o
b111110000 ?"
b1111111111111111111111111111111111111111111111111111111111111000 A
b1111111111111111111111111111111111111111111111111111111111111000 Q
b1111111111111111111111111111111111111111111111111111111111111000 U
b111110000 ;
b111110000 q
b111110000 )"
b100 9
b100 j
b100 ."
b1010110 ,
b1010110 I
b1010110 R
b1010110 {
1=
b1010101 :
b1010101 u
b1010101 *"
b101011000000000000000000000000000000000000000000000000000000000 H
b1111 (
b1111 K
b1111 k
b1111 U#
b1000 .
b1000 T
b1000 W
b1000 i
b1000 l
b1000 n
b1000 r
b1000 v
b1000 w
b1000 x
b1000 y
b1000 z
b1000 !"
b1000 P#
b1000 S#
b1000 T#
b1000 W#
b1000 Z#
b1010110 @
b1010110 ~
b1010110 ""
b10000000 5
b10000000 \
b10000000 Q#
b10101100000000000000000000000000000000000000000000000000000000010010000 B
b10101100000000000000000000000000000000000000000000000000000000010010000 L
b10101100000000000000000000000000000000000000000000000000000000010010000 [
b10000000010101100000000000000000000000000000000000000000000000000000000010010000 F
b10000000010101100000000000000000000000000000000000000000000000000000000010010000 ]
b10000000010101100000000000000000000000000000000000000000000000000000000010010000 ,"
b1001100 <
b1001100 Y
b1001100 ("
b1010101 &
b1010101 s
b1010101 |
b1010101 &"
b1001100 +
b1001100 Z
b1001100 #"
b1001100 $"
b100 L"
b100 L#
1!
#13000
0!
#14000
b1000 k"
b1000 2#
15"
1j"
b1100000 @
b1100000 ~
b1100000 ""
b1000 )
b1000 J
b1000 h
b1000 X#
11
b0 G"
b0 M#
0>"
b0 D
b0 N
b0 ^
b0 `
b1000 '
b1000 M
b1000 o
b1000 ?"
b1111 6
b1111 C"
b1111 Y#
0F"
14
b1000 A
b1000 Q
b1000 U
b0 ?
b0 P
b0 X
b0 ;
b0 q
b0 )"
b1000 9
b1000 j
b1000 ."
b1000 ,
b1000 I
b1000 R
b1000 {
b0 G
b0 V
b0 A"
b1000 %"
0=
b100000000000000000000000000000000000000000000000000000000000 H
10
b11 .
b11 T
b11 W
b11 i
b11 l
b11 n
b11 r
b11 v
b11 w
b11 x
b11 y
b11 z
b11 !"
b11 P#
b11 S#
b11 T#
b11 W#
b11 Z#
b0 :
b0 u
b0 *"
b110000 5
b110000 \
b110000 Q#
b111110000000100000000000000000000000000000000000000000000000000000000000 B
b111110000000100000000000000000000000000000000000000000000000000000000000 L
b111110000000100000000000000000000000000000000000000000000000000000000000 [
b110000111110000000100000000000000000000000000000000000000000000000000000000000 F
b110000111110000000100000000000000000000000000000000000000000000000000000000000 ]
b110000111110000000100000000000000000000000000000000000000000000000000000000000 ,"
b1010110 <
b1010110 Y
b1010110 ("
b111110000 H"
b111110000 O#
b1100000 &
b1100000 s
b1100000 |
b1100000 &"
b1010110 +
b1010110 Z
b1010110 #"
b1010110 $"
1!
#15000
0!
#16000
b1 '
b1 M
b1 o
b1 ?"
b1 A
b1 Q
b1 U
b0 k"
b0 2#
05"
b1 g"
b1 5#
16"
0j"
1f"
b1 ,
b1 I
b1 R
b1 {
b100000000000000000000000000000000000000000000000000000000 H
b1001 9
b1001 j
b1001 ."
b1001 )
b1001 J
b1001 h
b1001 X#
b1101010 @
b1101010 ~
b1101010 ""
b111110010000000100000000000000000000000000000000000000000000000000000000 B
b111110010000000100000000000000000000000000000000000000000000000000000000 L
b111110010000000100000000000000000000000000000000000000000000000000000000 [
b110000111110010000000100000000000000000000000000000000000000000000000000000000 F
b110000111110010000000100000000000000000000000000000000000000000000000000000000 ]
b110000111110010000000100000000000000000000000000000000000000000000000000000000 ,"
b1100000 <
b1100000 Y
b1100000 ("
b1101010 &
b1101010 s
b1101010 |
b1101010 &"
b1100000 +
b1100000 Z
b1100000 #"
b1100000 $"
b1000 l"
b1000 4#
1!
#17000
0!
#18000
0*
b0 %"
b0 c"
b0 8#
17"
06"
00
1b"
0f"
b0 7
b0 D"
b0 V#
b0 ,
b0 I
b0 R
b0 {
b0 6
b0 C"
b0 Y#
b0 A
b0 Q
b0 U
b0 g"
b0 5#
b0 H
b0 9
b0 j
b0 ."
b100 D
b100 N
b100 ^
b100 `
b0 '
b0 M
b0 o
b0 ?"
b0 )
b0 J
b0 h
b0 X#
b0 (
b0 K
b0 k
b0 U#
1E
b110 .
b110 T
b110 W
b110 i
b110 l
b110 n
b110 r
b110 v
b110 w
b110 x
b110 y
b110 z
b110 !"
b110 P#
b110 S#
b110 T#
b110 W#
b110 Z#
b11 /
b11 O
b11 g
b11 R#
b1101100 @
b1101100 ~
b1101100 ""
b1100011 5
b1100011 \
b1100011 Q#
b110001001100110011100001000011100000000000000000000000000000000 B
b110001001100110011100001000011100000000000000000000000000000000 L
b110001001100110011100001000011100000000000000000000000000000000 [
b1100011000000000110001001100110011100001000011100000000000000000000000000000000 F
b1100011000000000110001001100110011100001000011100000000000000000000000000000000 ]
b1100011000000000110001001100110011100001000011100000000000000000000000000000000 ,"
b1101010 <
b1101010 Y
b1101010 ("
b1 h"
b1 7#
b1101100 &
b1101100 s
b1101100 |
b1101100 &"
b1101010 +
b1101010 Z
b1101010 #"
b1101010 $"
1!
#19000
0!
#20000
b100 K"
b100 J#
b0 D
b0 N
b0 ^
b0 `
b100 '
b100 M
b100 o
b100 ?"
b100 ?
b100 P
b100 X
b100 A
b100 Q
b100 U
b100 G
b100 V
b100 A"
b100 -
b100 S
b100 p
b100 t
b100 B"
07"
1="
0b"
1J"
0*
b110 9
b110 j
b110 ."
b110 6
b110 C"
b110 Y#
b110 7
b110 D"
b110 V#
b110 )
b110 J
b110 h
b110 X#
b110 (
b110 K
b110 k
b110 U#
b10 /
b10 O
b10 g
b10 R#
b1101110 @
b1101110 ~
b1101110 ""
b1100010 5
b1100010 \
b1100010 Q#
b11001100111000010000111000000000000000000000000000000000000000000000000 B
b11001100111000010000111000000000000000000000000000000000000000000000000 L
b11001100111000010000111000000000000000000000000000000000000000000000000 [
1d
b1100010011001100111000010000111000000000000000000000000000000000000000000000000 F
b1100010011001100111000010000111000000000000000000000000000000000000000000000000 ]
b1100010011001100111000010000111000000000000000000000000000000000000000000000000 ,"
b1101100 <
b1101100 Y
b1101100 ("
b100 C
b100 _
b100 b
b100 c
b1101110 &
b1101110 s
b1101110 |
b1101110 &"
b1101100 +
b1101100 Z
b1101100 #"
b1101100 $"
1!
#21000
0!
